<?xml version="1.0" encoding="UTF-8" standalone="no"?>
<!-- Created with Inkscape (http://www.inkscape.org/) -->

<svg
   xmlns:dc="http://purl.org/dc/elements/1.1/"
   xmlns:cc="http://creativecommons.org/ns#"
   xmlns:rdf="http://www.w3.org/1999/02/22-rdf-syntax-ns#"
   xmlns:svg="http://www.w3.org/2000/svg"
   xmlns="http://www.w3.org/2000/svg"
   xmlns:sodipodi="http://sodipodi.sourceforge.net/DTD/sodipodi-0.dtd"
   xmlns:inkscape="http://www.inkscape.org/namespaces/inkscape"
   version="1.0"
   width="645"
   height="585"
   id="svg2"
   inkscape:version="0.91 r13725"
   sodipodi:docname="heart1.svg">
  <metadata
     id="metadata9">
    <rdf:RDF>
      <cc:Work
         rdf:about="">
        <dc:format>image/svg+xml</dc:format>
        <dc:type
           rdf:resource="http://purl.org/dc/dcmitype/StillImage" />
        <dc:title />
      </cc:Work>
    </rdf:RDF>
  </metadata>
  <sodipodi:namedview
     pagecolor="#ffffff"
     bordercolor="#666666"
     borderopacity="1"
     objecttolerance="10"
     gridtolerance="10"
     guidetolerance="10"
     inkscape:pageopacity="0"
     inkscape:pageshadow="2"
     inkscape:window-width="1366"
     inkscape:window-height="699"
     id="namedview7"
     showgrid="false"
     inkscape:zoom="0.4034188"
     inkscape:cx="-74.110172"
     inkscape:cy="168.30416"
     inkscape:window-x="0"
     inkscape:window-y="32"
     inkscape:window-maximized="1"
     inkscape:current-layer="svg2" />
  <defs
     id="defs4" />
  <g
     id="g2221"
     transform="matrix(0.76307201,0,0,0.76307201,186.00619,-35.241063)"
     style="fill:#ff0000" />
  <g
     id="g4145"
     style="fill:#ffffff">
    <path
       d="M 314.21127,434.16569 C 303.69992,422.38667 277.45358,399.42327 255.88609,383.13593 191.98331,334.87785 183.28613,327.89393 157.34027,304.00289 109.50746,259.95825 89.193655,215.70781 89.263267,155.70775 89.297233,126.41811 91.293624,115.13373 99.495976,97.868985 113.41189,68.577922 133.91072,46.812361 160.11847,33.50041 c 18.56203,-9.428352 27.7168,-13.617213 58.71414,-13.788585 32.42544,-0.179195 39.25138,3.601489 58.32519,14.08008 23.21609,12.754228 47.11199,40.012221 52.05161,59.375084 l 3.05084,11.959171 7.5236,-16.470536 c 42.51545,-93.0741269 178.25237,-91.6816151 225.48953,2.31332 14.98496,29.817836 16.63012,93.486376 3.34235,129.350526 -17.33339,46.78347 -49.88966,82.45034 -125.14865,137.10617 -49.35612,35.84427 -105.21599,90.07749 -109.10455,97.69461 -4.51393,8.84212 -0.21531,1.38566 -20.15126,-20.95456 z"
       id="path2417"
       style="fill:#ffffff"
       inkscape:connector-curvature="0" />
    <text
       transform="scale(0.9831989,1.0170882)"
       sodipodi:linespacing="125%"
       id="text4137"
       y="560.44891"
       x="90.090401"
       style="font-style:normal;font-weight:normal;font-size:124.59355927px;line-height:125%;font-family:sans-serif;letter-spacing:0px;word-spacing:0px;fill:#ffffff;fill-opacity:1;stroke:none;stroke-width:1px;stroke-linecap:butt;stroke-linejoin:miter;stroke-opacity:1"
       xml:space="preserve"><tspan
         style="font-style:normal;font-variant:normal;font-weight:bold;font-stretch:normal;font-family:sans-serif;-inkscape-font-specification:'sans-serif Bold';fill:#ffffff"
         y="560.44891"
         x="90.090401"
         id="tspan4139"
         sodipodi:role="line">Donate</tspan></text>
  </g>
</svg>
